What was the first toy to be advertised on television?,Mr Potato Head from Toy Story
What was the first feature-length animated movie ever released? (Hint: It was a Disney Movie),Snow White and the Seven Dwarfs
What TV series showed the first interracial kiss on American network television?,Star Trek
What were the four main characters' names in the TV series "Golden Girls" that ran from 1985-1992?,Dorothy  Rose  Blanche  and Sophia
Which Disney Princess talks to the most animals?,Snow White
What awards has an EGOT winner won?,An Emmy  Grammy  Oscar  and a Tony
Which member of the Beatles married Yoko Ono?,John Lennon
What are the names of Cinderella’s stepsisters?,Anastasia and Drizella
What famous US festival hosted over 350 000 fans in 1969?,Woodstock
The biggest selling music single of all time is?,Candle in the Wind (1997)
When Walt Disney was a child  which character did he play in his school function?,Peter Pan
What was Superman’s birth name?,Kal-El
What is the name of the song that Queen Elsa sings as she builds her ice castle in the movie Frozen?,Let It Go
How many films did Sean Connery play James Bond in?,Seven
Which Indiana Jones movie was released back in 1984?,Indiana Jones and the Temple of Doom
How many Lord of the Rings films are there?,Three
Which actor appeared in films “Face Off” and “Ghost Rider”?,Nicholas Cage
In what year was the first episode of South Park aired?,1997
Which cartoon character lives in a pineapple under the sea?,Spongebob Squarepants
What was the name of the actor who played Jack Dawson in Titanic?,Leonardo DiCaprio